 0
SECTION
 2
ENTITIES
  0
POLYLINE
 8
Layer0
 66
     1
70
    8
 10
0.0
 20
 0.0
 30
0.0
  0
VERTEX
  8
MY3DLAYER
10
131.45477611637324
20
46.23086577649307
30
49.0
 70
     32
  0
VERTEX
  8
MY3DLAYER
10
131.45477611637324
20
31.130865776493067
30
49.00000000000001
 70
     32
  0
VERTEX
  8
MY3DLAYER
10
131.43459600544185
20
25.417566025211332
30
49.00000000000001
 70
     32
  0
VERTEX
  8
MY3DLAYER
10
135.07437652683464
20
26.392865860416407
30
49.00000000000001
 70
     32
  0
VERTEX
  8
MY3DLAYER
10
138.5922760400793
20
27.74326583142471
30
49.00000000000001
 70
     32
  0
VERTEX
  8
MY3DLAYER
10
141.94977611637324
20
29.453955376102442
30
49.00000000000001
 70
     32
  0
VERTEX
  8
MY3DLAYER
10
145.1100754175207
20
31.506255829288477
30
49.00000000000001
 70
     32
  0
VERTEX
  8
MY3DLAYER
10
148.03847545719358
20
33.877655708744044
30
49.00000000000001
 70
     32
  0
VERTEX
  8
MY3DLAYER
10
150.47647518253535
20
36.31566568608474
30
49.00000000000001
 70
     32
  0
VERTEX
  8
MY3DLAYER
10
270.47648762044287
20
244.1617841377541
30
49.0000000000001
 70
     32
  0
VERTEX
  8
MY3DLAYER
10
271.3688663328256
20
247.49215882299086
30
49.0000000000001
 70
     32
  0
VERTEX
  8
MY3DLAYER
10
271.95835885112524
20
251.21392758951927
30
49.0000000000001
 70
     32
  0
VERTEX
  8
MY3DLAYER
10
272.1555535292051
20
254.97697729446838
30
49.0000000000001
 70
     32
  0
VERTEX
  8
MY3DLAYER
10
271.9583040947337
20
258.7400024260858
30
49.0000000000001
 70
     32
  0
VERTEX
  8
MY3DLAYER
10
271.3688350182706
20
262.4617927580201
30
49.0000000000001
 70
     32
  0
VERTEX
  8
MY3DLAYER
10
270.39357919116486
20
266.10158507134764
30
49.0000000000001
 70
     32
  0
VERTEX
  8
MY3DLAYER
10
269.04320161146626
20
269.61950850327213
30
49.0000000000001
 70
     32
  0
VERTEX
  8
MY3DLAYER
10
267.3324716471771
20
272.9769793623881
30
49.0000000000001
 70
     32
  0
VERTEX
  8
MY3DLAYER
10
265.28018157285493
20
276.1372504000315
30
49.0000000000001
 70
     32
  0
VERTEX
  8
MY3DLAYER
10
262.9087593020831
20
279.0656734047089
30
49.0000000000001
 70
     32
  0
VERTEX
  8
MY3DLAYER
10
260.2442346077897
20
281.7301658828296
30
49.0000000000001
 70
     32
  0
VERTEX
  8
MY3DLAYER
10
257.31580417100196
20
284.10155624375324
30
49.0000000000001
 70
     32
  0
VERTEX
  8
MY3DLAYER
10
254.15555352917357
20
286.15389183068993
30
49.0000000000001
 70
     32
  0
VERTEX
  8
MY3DLAYER
10
250.79805954994066
20
287.86464108244945
30
49.0000000000001
 70
     32
  0
VERTEX
  8
MY3DLAYER
10
247.280166991963
20
289.2150099695181
30
49.0000000000001
 70
     32
  0
VERTEX
  8
MY3DLAYER
10
243.94978855423423
20
290.1073746774099
30
49.0000000000001
 70
     32
  0
VERTEX
  8
MY3DLAYER
10
3.949763678255075
20
290.1073746773293
30
49.0000000000001
 70
     32
  0
VERTEX
  8
MY3DLAYER
10
0.6193852405280332
20
289.2150099694311
30
49.0000000000001
 70
     32
  0
VERTEX
  8
MY3DLAYER
10
-2.8985073174470166
20
287.86464108235555
30
49.0000000000001
 70
     32
  0
VERTEX
  8
MY3DLAYER
10
-6.256001296676586
20
286.1538918305896
30
49.0000000000001
 70
     32
  0
VERTEX
  8
MY3DLAYER
10
-9.416251938501013
20
284.10155624364677
30
49.0000000000001
 70
     32
  0
VERTEX
  8
MY3DLAYER
10
-12.344682375284087
20
281.7301658827174
30
49.0000000000001
 70
     32
  0
VERTEX
  8
MY3DLAYER
10
-15.009207069572405
20
279.06567340459156
30
49.0000000000001
 70
     32
  0
VERTEX
  8
MY3DLAYER
10
-17.380629340338523
20
276.1372503999096
30
49.0000000000001
 70
     32
  0
VERTEX
  8
MY3DLAYER
10
-19.43291941465462
20
272.97697936226217
30
49.0000000000001
 70
     32
  0
VERTEX
  8
MY3DLAYER
10
-21.143649378937223
20
269.6195085031429
30
49.0000000000001
 70
     32
  0
VERTEX
  8
MY3DLAYER
10
-22.494026958629004
20
266.10158507121577
30
49.0000000000001
 70
     32
  0
VERTEX
  8
MY3DLAYER
10
-23.469282785727668
20
262.46179275788637
30
49.0000000000001
 70
     32
  0
VERTEX
  8
MY3DLAYER
10
-24.058751862183577
20
258.7400024259509
30
49.0000000000001
 70
     32
  0
VERTEX
  8
MY3DLAYER
10
-24.256001296647714
20
254.9769772943331
30
49.0000000000001
 70
     32
  0
VERTEX
  8
MY3DLAYER
10
-24.05880661856054
20
251.21392758938435
30
49.0000000000001
 70
     32
  0
VERTEX
  8
MY3DLAYER
10
-23.46931410025364
20
247.49215882285708
30
49.0000000000001
 70
     32
  0
VERTEX
  8
MY3DLAYER
10
-22.576935387864488
20
244.16178413762208
30
49.0000000000001
 70
     32
  0
VERTEX
  8
MY3DLAYER
10
97.4230770502111
20
36.31566568608474
30
49.00000000000001
 70
     32
  0
VERTEX
  8
MY3DLAYER
10
99.86107677555293
20
33.877655708744044
30
49.00000000000001
 70
     32
  0
VERTEX
  8
MY3DLAYER
10
102.78947681522577
20
31.506255829288477
30
49.00000000000001
 70
     32
  0
VERTEX
  8
MY3DLAYER
10
105.94977611637327
20
29.453955376102442
30
49.00000000000001
 70
     32
  0
VERTEX
  8
MY3DLAYER
10
109.3072761926672
20
27.74326583142471
30
49.00000000000001
 70
     32
  0
VERTEX
  8
MY3DLAYER
10
112.82517570591182
20
26.392865860416407
30
49.00000000000001
 70
     32
  0
VERTEX
  8
MY3DLAYER
10
116.46495622730465
20
25.417566025211332
30
49.00000000000001
 70
     32
  0
VERTEX
  8
MY3DLAYER
10
116.44477611637326
20
31.130865776493067
30
49.0
 70
     32
  0
VERTEX
  8
MY3DLAYER
10
116.44477611637326
20
46.23086577649307
30
49.0
 70
     32
  0
VERTEX
  8
MY3DLAYER
10
131.45477611637324
20
46.23086577649307
30
49.0
 70
     32
  0
SEQEND
  0
POLYLINE
 8
Layer0
 66
     1
70
    8
 10
0.0
 20
 0.0
 30
0.0
  0
VERTEX
  8
MY3DLAYER
10
265.4558065226329
20
263.22745870689465
30
49.0000000000001
 70
     32
  0
VERTEX
  8
MY3DLAYER
10
252.3788229254895
20
255.6774587068917
30
49.0000000000001
 70
     32
  0
VERTEX
  8
MY3DLAYER
10
244.87382292548662
20
268.67650001769454
30
49.0000000000001
 70
     32
  0
VERTEX
  8
MY3DLAYER
10
257.95080652263
20
276.2265000176974
30
49.0000000000001
 70
     32
  0
VERTEX
  8
MY3DLAYER
10
265.4558065226329
20
263.22745870689465
30
49.0000000000001
 70
     32
  0
SEQEND
  0
POLYLINE
 8
Layer0
 66
     1
70
    8
 10
0.0
 20
 0.0
 30
0.0
  0
VERTEX
  8
MY3DLAYER
10
-10.051254290040482
20
276.226500017542
30
49.0000000000001
 70
     32
  0
VERTEX
  8
MY3DLAYER
10
3.025729307109516
20
268.6765000175506
30
49.0000000000001
 70
     32
  0
VERTEX
  8
MY3DLAYER
10
-4.479270693019351
20
255.6774587068206
30
49.00000000000011
 70
     32
  0
VERTEX
  8
MY3DLAYER
10
-17.556254290169353
20
263.227458706812
30
49.0000000000001
 70
     32
  0
VERTEX
  8
MY3DLAYER
10
-10.051254290040482
20
276.226500017542
30
49.0000000000001
 70
     32
  0
SEQEND
  0
POLYLINE
 8
Layer0
 66
     1
70
    8
 10
0.0
 20
 0.0
 30
0.0
  0
VERTEX
  8
MY3DLAYER
10
17.629635767678604
20
261.97120799621007
30
49.00000000000009
 70
     32
  0
VERTEX
  8
MY3DLAYER
10
25.42386440174154
20
257.4712079962152
30
49.00000000000009
 70
     32
  0
VERTEX
  8
MY3DLAYER
10
16.423864401586997
20
241.88275072818448
30
49.00000000000009
 70
     32
  0
VERTEX
  8
MY3DLAYER
10
8.629635767571651
20
246.38275072826175
30
49.00000000000009
 70
     32
  0
VERTEX
  8
MY3DLAYER
10
17.629635767678604
20
261.97120799621007
30
49.00000000000009
 70
     32
  0
SEQEND
  0
POLYLINE
 8
Layer0
 66
     1
70
    8
 10
0.0
 20
 0.0
 30
0.0
  0
VERTEX
  8
MY3DLAYER
10
239.26991646494056
20
246.38275072823106
30
49.00000000000008
 70
     32
  0
VERTEX
  8
MY3DLAYER
10
231.47568783088155
20
241.88275072822933
30
49.00000000000007
 70
     32
  0
VERTEX
  8
MY3DLAYER
10
222.47568783087814
20
257.47120799634723
30
49.00000000000007
 70
     32
  0
VERTEX
  8
MY3DLAYER
10
230.26991646493715
20
261.971207996349
30
49.00000000000008
 70
     32
  0
VERTEX
  8
MY3DLAYER
10
239.26991646494056
20
246.38275072823106
30
49.00000000000008
 70
     32
  0
SEQEND
  0
POLYLINE
 8
Layer0
 66
     1
70
    8
 10
0.0
 20
 0.0
 30
0.0
  0
VERTEX
  8
MY3DLAYER
10
114.94977611637324
20
62.23086577649307
30
49.000000000000014
 70
     32
  0
VERTEX
  8
MY3DLAYER
10
114.94977611637324
20
71.23086577649306
30
49.000000000000014
 70
     32
  0
VERTEX
  8
MY3DLAYER
10
132.94977611637327
20
71.23086577649306
30
49.000000000000014
 70
     32
  0
VERTEX
  8
MY3DLAYER
10
132.94977611637327
20
62.23086577649307
30
49.000000000000014
 70
     32
  0
VERTEX
  8
MY3DLAYER
10
114.94977611637324
20
62.23086577649307
30
49.000000000000014
 70
     32
  0
SEQEND
  0
POLYLINE
 8
Layer0
 66
     1
70
    8
 10
0.0
 20
 0.0
 30
0.0
  0
VERTEX
  8
MY3DLAYER
10
168.5412984964701
20
81.72487274228968
30
49.00000000000002
 70
     32
  0
VERTEX
  8
MY3DLAYER
10
168.13129087314428
20
81.89470346054729
30
49.00000000000002
 70
     32
  0
VERTEX
  8
MY3DLAYER
10
167.77920934512693
20
82.16486511896346
30
49.00000000000002
 70
     32
  0
VERTEX
  8
MY3DLAYER
10
167.50904768671032
20
82.51694664698041
30
49.00000000000003
 70
     32
  0
VERTEX
  8
MY3DLAYER
10
167.33921696845218
20
82.92695427030603
30
49.00000000000003
 70
     32
  0
VERTEX
  8
MY3DLAYER
10
167.2812908731433
20
83.36694664698027
30
49.00000000000003
 70
     32
  0
VERTEX
  8
MY3DLAYER
10
167.3392169684516
20
83.80693902365459
30
49.00000000000003
 70
     32
  0
VERTEX
  8
MY3DLAYER
10
167.50904768670918
20
84.21694664698042
30
49.00000000000003
 70
     32
  0
VERTEX
  8
MY3DLAYER
10
167.77920934512537
20
84.56902817499773
30
49.00000000000003
 70
     32
  0
VERTEX
  8
MY3DLAYER
10
168.13129087314232
20
84.83918983341437
30
49.00000000000003
 70
     32
  0
VERTEX
  8
MY3DLAYER
10
168.54129849646793
20
85.00902055167252
30
49.00000000000003
 70
     32
  0
VERTEX
  8
MY3DLAYER
10
168.98129087314217
20
85.06694664698139
30
49.000000000000036
 70
     32
  0
VERTEX
  8
MY3DLAYER
10
169.4212832498165
20
85.00902055167309
30
49.000000000000036
 70
     32
  0
VERTEX
  8
MY3DLAYER
10
169.83129087314236
20
84.8391898334155
30
49.000000000000036
 70
     32
  0
VERTEX
  8
MY3DLAYER
10
170.18337240115963
20
84.56902817499932
30
49.000000000000036
 70
     32
  0
VERTEX
  8
MY3DLAYER
10
170.45353405957627
20
84.21694664698235
30
49.00000000000003
 70
     32
  0
VERTEX
  8
MY3DLAYER
10
170.62336477783444
20
83.80693902365677
30
49.00000000000003
 70
     32
  0
VERTEX
  8
MY3DLAYER
10
170.6812908731433
20
83.3669466469825
30
49.00000000000003
 70
     32
  0
VERTEX
  8
MY3DLAYER
10
170.62336477783504
20
82.92695427030819
30
49.00000000000003
 70
     32
  0
VERTEX
  8
MY3DLAYER
10
170.4535340595774
20
82.51694664698236
30
49.00000000000003
 70
     32
  0
VERTEX
  8
MY3DLAYER
10
170.18337240116122
20
82.16486511896504
30
49.00000000000003
 70
     32
  0
VERTEX
  8
MY3DLAYER
10
169.8312908731443
20
81.8947034605484
30
49.00000000000003
 70
     32
  0
VERTEX
  8
MY3DLAYER
10
169.42128324981866
20
81.72487274229026
30
49.00000000000003
 70
     32
  0
VERTEX
  8
MY3DLAYER
10
168.98129087314445
20
81.6669466469814
30
49.00000000000002
 70
     32
  0
VERTEX
  8
MY3DLAYER
10
168.5412984964701
20
81.72487274228968
30
49.00000000000002
 70
     32
  0
SEQEND
  0
POLYLINE
 8
Layer0
 66
     1
70
    8
 10
0.0
 20
 0.0
 30
0.0
  0
VERTEX
  8
MY3DLAYER
10
240.62336477775509
20
204.17051080017575
30
49.00000000000008
 70
     32
  0
VERTEX
  8
MY3DLAYER
10
240.45353405949749
20
203.76050317684994
30
49.00000000000008
 70
     32
  0
VERTEX
  8
MY3DLAYER
10
240.18337240108133
20
203.4084216488326
30
49.00000000000008
 70
     32
  0
VERTEX
  8
MY3DLAYER
10
239.83129087306435
20
203.13825999041595
30
49.00000000000008
 70
     32
  0
VERTEX
  8
MY3DLAYER
10
239.42128324973876
20
202.9684292721578
30
49.00000000000008
 70
     32
  0
VERTEX
  8
MY3DLAYER
10
238.9812908730645
20
202.91050317684892
30
49.00000000000008
 70
     32
  0
VERTEX
  8
MY3DLAYER
10
238.5412984963902
20
202.9684292721572
30
49.00000000000008
 70
     32
  0
VERTEX
  8
MY3DLAYER
10
238.1312908730644
20
203.1382599904148
30
49.00000000000008
 70
     32
  0
VERTEX
  8
MY3DLAYER
10
237.77920934504704
20
203.40842164883097
30
49.00000000000008
 70
     32
  0
VERTEX
  8
MY3DLAYER
10
237.50904768663042
20
203.76050317684795
30
49.00000000000008
 70
     32
  0
VERTEX
  8
MY3DLAYER
10
237.33921696837223
20
204.17051080017353
30
49.00000000000008
 70
     32
  0
VERTEX
  8
MY3DLAYER
10
237.28129087306334
20
204.6105031768478
30
49.00000000000008
 70
     32
  0
VERTEX
  8
MY3DLAYER
10
237.33921696837166
20
205.0504955535221
30
49.00000000000008
 70
     32
  0
VERTEX
  8
MY3DLAYER
10
237.50904768662923
20
205.4605031768479
30
49.00000000000008
 70
     32
  0
VERTEX
  8
MY3DLAYER
10
237.77920934504542
20
205.81258470486526
30
49.00000000000008
 70
     32
  0
VERTEX
  8
MY3DLAYER
10
238.1312908730624
20
206.08274636328187
30
49.00000000000008
 70
     32
  0
VERTEX
  8
MY3DLAYER
10
238.54129849638798
20
206.25257708154004
30
49.00000000000008
 70
     32
  0
VERTEX
  8
MY3DLAYER
10
238.98129087306225
20
206.31050317684895
30
49.00000000000008
 70
     32
  0
VERTEX
  8
MY3DLAYER
10
239.42128324973655
20
206.25257708154064
30
49.00000000000008
 70
     32
  0
VERTEX
  8
MY3DLAYER
10
239.83129087306236
20
206.08274636328306
30
49.00000000000008
 70
     32
  0
VERTEX
  8
MY3DLAYER
10
240.18337240107968
20
205.81258470486688
30
49.00000000000008
 70
     32
  0
VERTEX
  8
MY3DLAYER
10
240.45353405949632
20
205.4605031768499
30
49.00000000000008
 70
     32
  0
VERTEX
  8
MY3DLAYER
10
240.6233647777545
20
205.0504955535243
30
49.00000000000008
 70
     32
  0
VERTEX
  8
MY3DLAYER
10
240.68129087306338
20
204.61050317685005
30
49.00000000000008
 70
     32
  0
VERTEX
  8
MY3DLAYER
10
240.62336477775509
20
204.17051080017575
30
49.00000000000008
 70
     32
  0
SEQEND
  0
POLYLINE
 8
Layer0
 66
     1
70
    8
 10
0.0
 20
 0.0
 30
0.0
  0
VERTEX
  8
MY3DLAYER
10
8.478268982868371
20
202.96842927206626
30
49.00000000000008
 70
     32
  0
VERTEX
  8
MY3DLAYER
10
8.06826135954262
20
203.13825999032403
30
49.00000000000008
 70
     32
  0
VERTEX
  8
MY3DLAYER
10
7.716179831525423
20
203.40842164874036
30
49.00000000000008
 70
     32
  0
VERTEX
  8
MY3DLAYER
10
7.446018173108929
20
203.76050317675742
30
49.00000000000008
 70
     32
  0
VERTEX
  8
MY3DLAYER
10
7.276187454850963
20
204.17051080008312
30
49.00000000000008
 70
     32
  0
VERTEX
  8
MY3DLAYER
10
7.218261359542283
20
204.61050317675736
30
49.00000000000008
 70
     32
  0
VERTEX
  8
MY3DLAYER
10
7.276187454850766
20
205.0504955534317
30
49.00000000000008
 70
     32
  0
VERTEX
  8
MY3DLAYER
10
7.446018173108535
20
205.46050317675744
30
49.00000000000008
 70
     32
  0
VERTEX
  8
MY3DLAYER
10
7.716179831524871
20
205.81258470477465
30
49.00000000000008
 70
     32
  0
VERTEX
  8
MY3DLAYER
10
8.068261359541943
20
206.08274636319115
30
49.00000000000008
 70
     32
  0
VERTEX
  8
MY3DLAYER
10
8.478268982867617
20
206.2525770814491
30
49.00000000000008
 70
     32
  0
VERTEX
  8
MY3DLAYER
10
8.918261359541885
20
206.3105031767578
30
49.00000000000008
 70
     32
  0
VERTEX
  8
MY3DLAYER
10
9.358253736216186
20
206.25257708144932
30
49.00000000000008
 70
     32
  0
VERTEX
  8
MY3DLAYER
10
9.76826135954194
20
206.0827463631915
30
49.00000000000008
 70
     32
  0
VERTEX
  8
MY3DLAYER
10
10.120342887559136
20
205.8125847047752
30
49.00000000000008
 70
     32
  0
VERTEX
  8
MY3DLAYER
10
10.39050454597563
20
205.46050317675812
30
49.00000000000008
 70
     32
  0
VERTEX
  8
MY3DLAYER
10
10.560335264233595
20
205.05049555343246
30
49.00000000000008
 70
     32
  0
VERTEX
  8
MY3DLAYER
10
10.618261359542277
20
204.6105031767582
30
49.00000000000008
 70
     32
  0
VERTEX
  8
MY3DLAYER
10
10.5603352642338
20
204.1705108000839
30
49.00000000000008
 70
     32
  0
VERTEX
  8
MY3DLAYER
10
10.390504545976023
20
203.7605031767581
30
49.00000000000008
 70
     32
  0
VERTEX
  8
MY3DLAYER
10
10.120342887559689
20
203.40842164874093
30
49.00000000000008
 70
     32
  0
VERTEX
  8
MY3DLAYER
10
9.768261359542617
20
203.13825999032443
30
49.00000000000008
 70
     32
  0
VERTEX
  8
MY3DLAYER
10
9.358253736216943
20
202.96842927206646
30
49.00000000000008
 70
     32
  0
VERTEX
  8
MY3DLAYER
10
8.918261359542669
20
202.91050317675777
30
49.00000000000008
 70
     32
  0
VERTEX
  8
MY3DLAYER
10
8.478268982868371
20
202.96842927206626
30
49.00000000000008
 70
     32
  0
SEQEND
  0
POLYLINE
 8
Layer0
 66
     1
70
    8
 10
0.0
 20
 0.0
 30
0.0
  0
VERTEX
  8
MY3DLAYER
10
77.71617983155184
20
84.56902817496882
30
49.000000000000036
 70
     32
  0
VERTEX
  8
MY3DLAYER
10
78.06826135956894
20
84.83918983338532
30
49.000000000000036
 70
     32
  0
VERTEX
  8
MY3DLAYER
10
78.47826898289459
20
85.00902055164329
30
49.000000000000036
 70
     32
  0
VERTEX
  8
MY3DLAYER
10
78.91826135956887
20
85.06694664695195
30
49.000000000000036
 70
     32
  0
VERTEX
  8
MY3DLAYER
10
79.35825373624316
20
85.00902055164347
30
49.000000000000036
 70
     32
  0
VERTEX
  8
MY3DLAYER
10
79.76826135956892
20
84.8391898333857
30
49.000000000000036
 70
     32
  0
VERTEX
  8
MY3DLAYER
10
80.12034288758612
20
84.56902817496936
30
49.000000000000036
 70
     32
  0
VERTEX
  8
MY3DLAYER
10
80.39050454600262
20
84.21694664695228
30
49.000000000000036
 70
     32
  0
VERTEX
  8
MY3DLAYER
10
80.56033526426057
20
83.80693902362663
30
49.000000000000036
 70
     32
  0
VERTEX
  8
MY3DLAYER
10
80.61826135956926
20
83.36694664695234
30
49.000000000000036
 70
     32
  0
VERTEX
  8
MY3DLAYER
10
80.56033526426077
20
82.92695427027805
30
49.000000000000036
 70
     32
  0
VERTEX
  8
MY3DLAYER
10
80.39050454600297
20
82.51694664695228
30
49.000000000000036
 70
     32
  0
VERTEX
  8
MY3DLAYER
10
80.12034288758666
20
82.16486511893511
30
49.000000000000036
 70
     32
  0
VERTEX
  8
MY3DLAYER
10
79.76826135956958
20
81.89470346051861
30
49.000000000000036
 70
     32
  0
VERTEX
  8
MY3DLAYER
10
79.35825373624392
20
81.72487274226064
30
49.000000000000036
 70
     32
  0
VERTEX
  8
MY3DLAYER
10
78.91826135956964
20
81.66694664695196
30
49.000000000000036
 70
     32
  0
VERTEX
  8
MY3DLAYER
10
78.47826898289536
20
81.72487274226044
30
49.000000000000036
 70
     32
  0
VERTEX
  8
MY3DLAYER
10
78.06826135956959
20
81.89470346051823
30
49.000000000000036
 70
     32
  0
VERTEX
  8
MY3DLAYER
10
77.7161798315524
20
82.16486511893457
30
49.000000000000036
 70
     32
  0
VERTEX
  8
MY3DLAYER
10
77.4460181731359
20
82.51694664695162
30
49.000000000000036
 70
     32
  0
VERTEX
  8
MY3DLAYER
10
77.27618745487794
20
82.9269542702773
30
49.000000000000036
 70
     32
  0
VERTEX
  8
MY3DLAYER
10
77.21826135956925
20
83.36694664695158
30
49.000000000000036
 70
     32
  0
VERTEX
  8
MY3DLAYER
10
77.27618745487774
20
83.80693902362587
30
49.000000000000036
 70
     32
  0
VERTEX
  8
MY3DLAYER
10
77.44601817313554
20
84.21694664695163
30
49.000000000000036
 70
     32
  0
VERTEX
  8
MY3DLAYER
10
77.71617983155184
20
84.56902817496882
30
49.000000000000036
 70
     32
  0
SEQEND
  0
POLYLINE
 8
Layer0
 66
     1
70
    8
 10
0.0
 20
 0.0
 30
0.0
  0
VERTEX
  8
MY3DLAYER
10
192.47753292993937
20
283.4573746773926
30
49.00000000000014
 70
     32
  0
VERTEX
  8
MY3DLAYER
10
192.7476945883557
20
283.80945620540984
30
49.00000000000014
 70
     32
  0
VERTEX
  8
MY3DLAYER
10
193.0997761163727
20
284.0796178638264
30
49.00000000000014
 70
     32
  0
VERTEX
  8
MY3DLAYER
10
193.50978373969838
20
284.24944858208437
30
49.00000000000014
 70
     32
  0
VERTEX
  8
MY3DLAYER
10
193.94977611637265
20
284.3073746773931
30
49.00000000000014
 70
     32
  0
VERTEX
  8
MY3DLAYER
10
194.38976849304697
20
284.2494485820847
30
49.00000000000014
 70
     32
  0
VERTEX
  8
MY3DLAYER
10
194.79977611637273
20
284.07961786382697
30
49.00000000000014
 70
     32
  0
VERTEX
  8
MY3DLAYER
10
195.15185764438993
20
283.80945620541064
30
49.00000000000014
 70
     32
  0
VERTEX
  8
MY3DLAYER
10
195.42201930280646
20
283.4573746773936
30
49.00000000000014
 70
     32
  0
VERTEX
  8
MY3DLAYER
10
195.59185002106452
20
283.04736705406793
30
49.00000000000014
 70
     32
  0
VERTEX
  8
MY3DLAYER
10
195.6497761163732
20
282.6073746773937
30
49.00000000000014
 70
     32
  0
VERTEX
  8
MY3DLAYER
10
195.59185002106477
20
282.1673823007194
30
49.00000000000014
 70
     32
  0
VERTEX
  8
MY3DLAYER
10
195.42201930280706
20
281.7573746773936
30
49.00000000000014
 70
     32
  0
VERTEX
  8
MY3DLAYER
10
195.1518576443908
20
281.40529314937635
30
49.00000000000014
 70
     32
  0
VERTEX
  8
MY3DLAYER
10
194.79977611637372
20
281.13513149095985
30
49.00000000000014
 70
     32
  0
VERTEX
  8
MY3DLAYER
10
194.38976849304808
20
280.9653007727018
30
49.00000000000014
 70
     32
  0
VERTEX
  8
MY3DLAYER
10
193.94977611637384
20
280.9073746773931
30
49.00000000000014
 70
     32
  0
VERTEX
  8
MY3DLAYER
10
193.50978373969951
20
280.96530077270154
30
49.00000000000014
 70
     32
  0
VERTEX
  8
MY3DLAYER
10
193.09977611637376
20
281.1351314909592
30
49.00000000000014
 70
     32
  0
VERTEX
  8
MY3DLAYER
10
192.7476945883565
20
281.40529314937555
30
49.00000000000014
 70
     32
  0
VERTEX
  8
MY3DLAYER
10
192.47753292993997
20
281.7573746773926
30
49.00000000000014
 70
     32
  0
VERTEX
  8
MY3DLAYER
10
192.30770221168197
20
282.16738230071826
30
49.00000000000014
 70
     32
  0
VERTEX
  8
MY3DLAYER
10
192.24977611637323
20
282.6073746773925
30
49.00000000000014
 70
     32
  0
VERTEX
  8
MY3DLAYER
10
192.30770221168166
20
283.0473670540668
30
49.00000000000014
 70
     32
  0
VERTEX
  8
MY3DLAYER
10
192.47753292993937
20
283.4573746773926
30
49.00000000000014
 70
     32
  0
SEQEND
  0
POLYLINE
 8
Layer0
 66
     1
70
    8
 10
0.0
 20
 0.0
 30
0.0
  0
VERTEX
  8
MY3DLAYER
10
52.4775329299394
20
283.4573746773456
30
49.00000000000013
 70
     32
  0
VERTEX
  8
MY3DLAYER
10
52.74769458835571
20
283.80945620536284
30
49.00000000000013
 70
     32
  0
VERTEX
  8
MY3DLAYER
10
53.099776116372745
20
284.07961786377933
30
49.00000000000013
 70
     32
  0
VERTEX
  8
MY3DLAYER
10
53.5097837396984
20
284.24944858203736
30
49.00000000000013
 70
     32
  0
VERTEX
  8
MY3DLAYER
10
53.949776116372675
20
284.3073746773461
30
49.00000000000013
 70
     32
  0
VERTEX
  8
MY3DLAYER
10
54.38976849304697
20
284.24944858203764
30
49.00000000000013
 70
     32
  0
VERTEX
  8
MY3DLAYER
10
54.79977611637274
20
284.0796178637799
30
49.00000000000013
 70
     32
  0
VERTEX
  8
MY3DLAYER
10
55.151857644389956
20
283.80945620536363
30
49.00000000000013
 70
     32
  0
VERTEX
  8
MY3DLAYER
10
55.4220193028065
20
283.4573746773466
30
49.00000000000013
 70
     32
  0
VERTEX
  8
MY3DLAYER
10
55.5918500210645
20
283.04736705402087
30
49.00000000000013
 70
     32
  0
VERTEX
  8
MY3DLAYER
10
55.649776116373225
20
282.6073746773466
30
49.00000000000013
 70
     32
  0
VERTEX
  8
MY3DLAYER
10
55.591850021064786
20
282.16738230067233
30
49.00000000000013
 70
     32
  0
VERTEX
  8
MY3DLAYER
10
55.42201930280705
20
281.75737467734655
30
49.00000000000013
 70
     32
  0
VERTEX
  8
MY3DLAYER
10
55.151857644390745
20
281.40529314932934
30
49.00000000000013
 70
     32
  0
VERTEX
  8
MY3DLAYER
10
54.79977611637371
20
281.13513149091284
30
49.00000000000013
 70
     32
  0
VERTEX
  8
MY3DLAYER
10
54.38976849304805
20
280.9653007726548
30
49.00000000000013
 70
     32
  0
VERTEX
  8
MY3DLAYER
10
53.949776116373776
20
280.90737467734607
30
49.00000000000013
 70
     32
  0
VERTEX
  8
MY3DLAYER
10
53.50978373969948
20
280.96530077265453
30
49.00000000000013
 70
     32
  0
VERTEX
  8
MY3DLAYER
10
53.09977611637371
20
281.1351314909123
30
49.00000000000013
 70
     32
  0
VERTEX
  8
MY3DLAYER
10
52.747694588356495
20
281.40529314932854
30
49.00000000000013
 70
     32
  0
VERTEX
  8
MY3DLAYER
10
52.477532929939954
20
281.7573746773456
30
49.00000000000013
 70
     32
  0
VERTEX
  8
MY3DLAYER
10
52.30770221168195
20
282.1673823006713
30
49.00000000000013
 70
     32
  0
VERTEX
  8
MY3DLAYER
10
52.249776116373226
20
282.60737467734555
30
49.00000000000013
 70
     32
  0
VERTEX
  8
MY3DLAYER
10
52.307702211681665
20
283.04736705401984
30
49.00000000000013
 70
     32
  0
VERTEX
  8
MY3DLAYER
10
52.4775329299394
20
283.4573746773456
30
49.00000000000013
 70
     32
  0
SEQEND
  0
POLYLINE
 8
Layer0
 66
     1
70
    8
 10
0.0
 20
 0.0
 30
0.0
  0
VERTEX
  8
MY3DLAYER
10
129.7771633977897
20
101.2861925369029
30
49.000000000000036
 70
     32
  0
VERTEX
  8
MY3DLAYER
10
123.94977611615522
20
101.09542362974803
30
49.000000000000036
 70
     32
  0
VERTEX
  8
MY3DLAYER
10
118.12238883452149
20
101.28619253692187
30
49.000000000000036
 70
     32
  0
VERTEX
  8
MY3DLAYER
10
112.31995531986584
20
101.85768235667649
30
49.000000000000036
 70
     32
  0
VERTEX
  8
MY3DLAYER
10
106.56732248330286
20
102.80744588186704
30
49.000000000000036
 70
     32
  0
VERTEX
  8
MY3DLAYER
10
100.8891239817989
20
104.13141607926832
30
49.000000000000036
 70
     32
  0
VERTEX
  8
MY3DLAYER
10
95.30967473307045
20
105.8239235052355
30
49.000000000000036
 70
     32
  0
VERTEX
  8
MY3DLAYER
10
89.8528667953734
20
107.87772058313206
30
49.000000000000036
 70
     32
  0
VERTEX
  8
MY3DLAYER
10
84.54206705804214
20
110.28401263856544
30
49.00000000000004
 70
     32
  0
VERTEX
  8
MY3DLAYER
10
79.40001718087963
20
113.03249555953396
30
49.00000000000004
 70
     32
  0
VERTEX
  8
MY3DLAYER
10
74.4487362108814
20
116.11139992021555
30
49.00000000000004
 70
     32
  0
VERTEX
  8
MY3DLAYER
10
69.70942629329642
20
119.50754137945529
30
49.00000000000004
 70
     32
  0
VERTEX
  8
MY3DLAYER
10
65.20238188078324
20
123.20637713813993
30
49.00000000000004
 70
     32
  0
VERTEX
  8
MY3DLAYER
10
60.94690282945112
20
127.1920682136946
30
49.00000000000004
 70
     32
  0
VERTEX
  8
MY3DLAYER
10
56.96121175391019
20
131.44754726503987
30
49.00000000000004
 70
     32
  0
VERTEX
  8
MY3DLAYER
10
53.262375995240525
20
135.9545916775647
30
49.00000000000004
 70
     32
  0
VERTEX
  8
MY3DLAYER
10
49.866234536016144
20
140.69390159516084
30
49.00000000000005
 70
     32
  0
VERTEX
  8
MY3DLAYER
10
46.787330175350554
20
145.64518256516925
30
49.00000000000005
 70
     32
  0
VERTEX
  8
MY3DLAYER
10
44.038847254398846
20
150.7872324423406
30
49.00000000000005
 70
     32
  0
VERTEX
  8
MY3DLAYER
10
41.6325551989825
20
156.09803217968036
30
49.00000000000006
 70
     32
  0
VERTEX
  8
MY3DLAYER
10
39.57875812110376
20
161.55484011738406
30
49.00000000000006
 70
     32
  0
VERTEX
  8
MY3DLAYER
10
37.886250695155056
20
167.134289366117
30
49.00000000000006
 70
     32
  0
VERTEX
  8
MY3DLAYER
10
36.56228049777211
20
172.81248786762578
30
49.000000000000064
 70
     32
  0
VERTEX
  8
MY3DLAYER
10
35.612516972600396
20
178.56512070419146
30
49.000000000000064
 70
     32
  0
VERTEX
  8
MY3DLAYER
10
35.04102715286461
20
184.36755421884922
30
49.00000000000007
 70
     32
  0
VERTEX
  8
MY3DLAYER
10
34.85025824570972
20
190.19494150048322
30
49.00000000000007
 70
     32
  0
VERTEX
  8
MY3DLAYER
10
35.04102715288354
20
196.02232878211674
30
49.00000000000007
 70
     32
  0
VERTEX
  8
MY3DLAYER
10
35.61251697263822
20
201.8247622967733
30
49.00000000000007
 70
     32
  0
VERTEX
  8
MY3DLAYER
10
36.56228049782876
20
207.5773951333362
30
49.00000000000007
 70
     32
  0
VERTEX
  8
MY3DLAYER
10
37.88625069523003
20
213.25559363483998
30
49.00000000000008
 70
     32
  0
VERTEX
  8
MY3DLAYER
10
39.57875812119712
20
218.8350428835682
30
49.00000000000008
 70
     32
  0
VERTEX
  8
MY3DLAYER
10
41.63255519909338
20
224.29185082126443
30
49.00000000000008
 70
     32
  0
VERTEX
  8
MY3DLAYER
10
44.038847254527006
20
229.60265055859654
30
49.000000000000085
 70
     32
  0
VERTEX
  8
MY3DLAYER
10
46.78733017549557
20
234.74470043575914
30
49.000000000000085
 70
     32
  0
VERTEX
  8
MY3DLAYER
10
49.86623453617742
20
239.69598140575778
30
49.000000000000085
 70
     32
  0
VERTEX
  8
MY3DLAYER
10
53.26237599541676
20
244.43529132334226
30
49.00000000000009
 70
     32
  0
VERTEX
  8
MY3DLAYER
10
56.96121175410123
20
248.94233573585518
30
49.00000000000009
 70
     32
  0
VERTEX
  8
MY3DLAYER
10
60.94690282965624
20
253.1978147871877
30
49.00000000000009
 70
     32
  0
VERTEX
  8
MY3DLAYER
10
65.20238188100156
20
257.1835058627287
30
49.0000000000001
 70
     32
  0
VERTEX
  8
MY3DLAYER
10
69.70942629352655
20
260.88234162139844
30
49.0000000000001
 70
     32
  0
VERTEX
  8
MY3DLAYER
10
74.4487362111219
20
264.2784830806223
30
49.0000000000001
 70
     32
  0
VERTEX
  8
MY3DLAYER
10
79.40001718113041
20
267.357387441288
30
49.0000000000001
 70
     32
  0
VERTEX
  8
MY3DLAYER
10
84.54206705830255
20
270.1058703622402
30
49.0000000000001
 70
     32
  0
VERTEX
  8
MY3DLAYER
10
89.85286679564193
20
272.5121624176563
30
49.0000000000001
 70
     32
  0
VERTEX
  8
MY3DLAYER
10
95.30967473334547
20
274.565959495535
30
49.0000000000001
 70
     32
  0
VERTEX
  8
MY3DLAYER
10
100.88912398207826
20
276.2584669214837
30
49.0000000000001
 70
     32
  0
VERTEX
  8
MY3DLAYER
10
106.56732248358783
20
277.5824371188669
30
49.0000000000001
 70
     32
  0
VERTEX
  8
MY3DLAYER
10
112.31995532015365
20
278.5322006440386
30
49.0000000000001
 70
     32
  0
VERTEX
  8
MY3DLAYER
10
118.12238883481143
20
279.10369046377434
30
49.0000000000001
 70
     32
  0
VERTEX
  8
MY3DLAYER
10
123.94977611644529
20
279.29445937092925
30
49.0000000000001
 70
     32
  0
VERTEX
  8
MY3DLAYER
10
129.777163398078
20
279.1036904637554
30
49.0000000000001
 70
     32
  0
VERTEX
  8
MY3DLAYER
10
135.5795969127347
20
278.5322006440007
30
49.0000000000001
 70
     32
  0
VERTEX
  8
MY3DLAYER
10
141.33222974929782
20
277.58243711881016
30
49.0000000000001
 70
     32
  0
VERTEX
  8
MY3DLAYER
10
147.0104282508021
20
276.2584669214088
30
49.0000000000001
 70
     32
  0
VERTEX
  8
MY3DLAYER
10
152.58987749952942
20
274.565959495442
30
49.0000000000001
 70
     32
  0
VERTEX
  8
MY3DLAYER
10
158.04668543722656
20
272.5121624175454
30
49.0000000000001
 70
     32
  0
VERTEX
  8
MY3DLAYER
10
163.35748517455883
20
270.1058703621116
30
49.0000000000001
 70
     32
  0
VERTEX
  8
MY3DLAYER
10
168.49953505172178
20
267.35738744114286
30
49.0000000000001
 70
     32
  0
VERTEX
  8
MY3DLAYER
10
173.45081602171928
20
264.2784830804616
30
49.0000000000001
 70
     32
  0
VERTEX
  8
MY3DLAYER
10
178.19012593930412
20
260.88234162122205
30
49.0000000000001
 70
     32
  0
VERTEX
  8
MY3DLAYER
10
182.69717035181677
20
257.1835058625378
30
49.0000000000001
 70
     32
  0
VERTEX
  8
MY3DLAYER
10
186.95264940314934
20
253.1978147869828
30
49.00000000000009
 70
     32
  0
VERTEX
  8
MY3DLAYER
10
190.93834047869046
20
248.94233573563736
30
49.00000000000009
 70
     32
  0
VERTEX
  8
MY3DLAYER
10
194.63717623736017
20
244.4352913231125
30
49.00000000000009
 70
     32
  0
VERTEX
  8
MY3DLAYER
10
198.03331769658462
20
239.69598140551616
30
49.000000000000085
 70
     32
  0
VERTEX
  8
MY3DLAYER
10
201.1122220572498
20
234.74470043550852
30
49.000000000000085
 70
     32
  0
VERTEX
  8
MY3DLAYER
10
203.86070497820214
20
229.6026505583359
30
49.000000000000085
 70
     32
  0
VERTEX
  8
MY3DLAYER
10
206.26699703361805
20
224.2918508209971
30
49.00000000000008
 70
     32
  0
VERTEX
  8
MY3DLAYER
10
208.3207941114969
20
218.83504288329317
30
49.00000000000008
 70
     32
  0
VERTEX
  8
MY3DLAYER
10
210.01330153744559
20
213.25559363456028
30
49.00000000000008
 70
     32
  0
VERTEX
  8
MY3DLAYER
10
211.3372717348286
20
207.57739513305106
30
49.00000000000007
 70
     32
  0
VERTEX
  8
MY3DLAYER
10
212.28703526000012
20
201.82476229648634
30
49.00000000000007
 70
     32
  0
VERTEX
  8
MY3DLAYER
10
212.85852507973613
20
196.02232878182699
30
49.00000000000007
 70
     32
  0
VERTEX
  8
MY3DLAYER
10
213.04929398689094
20
190.19494150019364
30
49.00000000000007
 70
     32
  0
VERTEX
  8
MY3DLAYER
10
212.85852507971708
20
184.36755421856043
30
49.00000000000007
 70
     32
  0
VERTEX
  8
MY3DLAYER
10
212.28703525996235
20
178.56512070390343
30
49.000000000000064
 70
     32
  0
VERTEX
  8
MY3DLAYER
10
211.33727173477186
20
172.81248786734096
30
49.000000000000064
 70
     32
  0
VERTEX
  8
MY3DLAYER
10
210.01330153737038
20
167.1342893658362
30
49.00000000000006
 70
     32
  0
VERTEX
  8
MY3DLAYER
10
208.32079411140367
20
161.5548401171095
30
49.00000000000006
 70
     32
  0
VERTEX
  8
MY3DLAYER
10
206.266997033507
20
156.09803217941212
30
49.00000000000006
 70
     32
  0
VERTEX
  8
MY3DLAYER
10
203.86070497807333
20
150.78723244208012
30
49.00000000000005
 70
     32
  0
VERTEX
  8
MY3DLAYER
10
201.11222205710496
20
145.64518256491792
30
49.00000000000005
 70
     32
  0
VERTEX
  8
MY3DLAYER
10
198.0333176964235
20
140.69390159491985
30
49.00000000000005
 70
     32
  0
VERTEX
  8
MY3DLAYER
10
194.63717623718367
20
135.9545916773347
30
49.00000000000004
 70
     32
  0
VERTEX
  8
MY3DLAYER
10
190.9383404784991
20
131.44754726482165
30
49.00000000000004
 70
     32
  0
VERTEX
  8
MY3DLAYER
10
186.95264940294408
20
127.19206821348912
30
49.00000000000004
 70
     32
  0
VERTEX
  8
MY3DLAYER
10
182.69717035159886
20
123.20637713794827
30
49.00000000000004
 70
     32
  0
VERTEX
  8
MY3DLAYER
10
178.190125939074
20
119.50754137927862
30
49.00000000000004
 70
     32
  0
VERTEX
  8
MY3DLAYER
10
173.45081602147806
20
116.1113999200544
30
49.00000000000004
 70
     32
  0
VERTEX
  8
MY3DLAYER
10
168.49953505147
20
113.03249555938902
30
49.00000000000004
 70
     32
  0
VERTEX
  8
MY3DLAYER
10
163.3574851742979
20
110.28401263843692
30
49.00000000000004
 70
     32
  0
VERTEX
  8
MY3DLAYER
10
158.0466854369585
20
107.87772058302076
30
49.000000000000036
 70
     32
  0
VERTEX
  8
MY3DLAYER
10
152.58987749925538
20
105.82392350514225
30
49.000000000000036
 70
     32
  0
VERTEX
  8
MY3DLAYER
10
147.01042825052141
20
104.1314160791932
30
49.000000000000036
 70
     32
  0
VERTEX
  8
MY3DLAYER
10
141.3322297490135
20
102.8074458818105
30
49.000000000000036
 70
     32
  0
VERTEX
  8
MY3DLAYER
10
135.57959691244682
20
101.85768235663858
30
49.000000000000036
 70
     32
  0
VERTEX
  8
MY3DLAYER
10
129.7771633977897
20
101.2861925369029
30
49.000000000000036
 70
     32
  0
SEQEND
 0
ENDSEC
 0
EOF
